artist;other_artist
travi$ scott;2 chainz
migos;2 chainz
a$ap rocky;2 chainz
yg;2 chainz
b.o.b;2 chainz
jason derülo;2 chainz
chance the rapper;2 chainz
jason derülo;2 chainz
post malone;21 savage
cardi b;21 savage
offset;21 savage
metro boomin;21 savage
bazzi;21 savage
schoolboy q;21 savage
mf doom;4ize
ed sheeran;50 cent
a boogie wit da hoodie;6ix9ine
normani;6lack
selena gomez;6lack
young thug;6lack
ynw melly;9lokknine
sia;None
sia;None
sia;None
roddy ricch;a boogie wit da hoodie
mustard;a boogie wit da hoodie
madeintyo;a$ap ferg
selena gomez;a$ap rocky
mura masa;a$ap rocky
tyler, the creator;a$ap rocky
lana del rey;a$ap rocky
famous dex;a$ap rocky
a$ap ferg;a$ap rocky
lana del rey;a$ap rocky
tyler, the creator;aaron shaw
charli xcx;abra
earl sweatshirt;ace creator
gym class heroes;adam levine
slash;adam levine
kanye west;adam levine of maroon 5
m.i.a.;afrikan boy
david guetta;afrojack
david guetta;afrojack
noname;akenya
nujabes;akin from cyne
david guetta;akon
david guetta;akon
david guetta;akon
robin schulz;akon
rudimental;alex clare
jay-z;alicia keys
placebo;alison mosshart
macklemore & ryan lewis;allen stone
charli xcx;alma
tove lo;alma
avicii;aloe blacc
jack ü;alunageorge
disclosure;alunageorge
major lazer;amber of dirty projectors
rejjie snow;aminé
injury reserve;aminé
seether;amy lee
mark ronson;amy winehouse
mark ronson;amy winehouse
lagum;ana gabriela
mac miller;anderson .paak
freddie gibbs;anderson .paak
ybn cordae;anderson .paak
bonobo;andreya triana
bonobo;andreya triana
bonobo;andreya triana
frank ocean;andré 3000
beyoncé;andré 3000
anderson .paak;andré 3000
mf doom;angelika
sofia reyes;anitta
madonna;anitta
major lazer;anitta
tyler, the creator;anna of the north
kendrick lamar;anna wise
kendrick lamar;anna wise
clean bandit;anne-marie
gorillaz;anthony hamilton
ravyn lenae;appleby
nicki minaj;ariana grande
nicki minaj;ariana grande
troye sivan;ariana grande
lizzo;ariana grande
cashmere cat;ariana grande
tyler, the creator;austin feinstein
ty dolla $ign;b.o.b
jessie j;b.o.b
illenium;bahari
bonobo;bajka
dreamville;bas
gorillaz;bashy
notd;bea miller
powfu;beabadoobee
rita ora;bebe rexha
david guetta;bebe rexha
louis tomlinson;bebe rexha
cash cash;bebe rexha
j-hope;becky g
honne;beka
rich brian;bekon
freestylers;belle humble flux pavilion rmx
lady gaga;beyonce
nicki minaj;beyoncé
lady gaga;beyoncé
j balvin;beyoncé
kali uchis;bia
janelle monáe;big boi
run the jewels;big boi
charli xcx;big freedia
ke$ha;big freedia
calvin harris;big sean
halsey;big sean
yg;big sean
ariana grande;big sean
kendrick lamar;bilal
kendrick lamar;bilal
mac miller;bilal
freddie gibbs;bj the chicago kid
jid;bj the chicago kid
jay rock;black hippy
eminem;black thought
no jumper;blocboy jb
grimes;blood diamonds
beyoncé;blue ivy
nle choppa;blueface
gorillaz;bobby womack
gorillaz;bobby womack
kanye west;bon iver
kanye west;bon iver
francis and the lights;bon iver
martin garrix;bonn
martin garrix;bonn
run the jewels;boots
run the jewels;boots
kali uchis;bootsy collins
anderson .paak;brandy
lil dicky;brendon urie of panic at the disco
taylor swift;brendon urie of panic! at the disco
goldlink;brent faiyaz
janelle monáe;brian wilson
will.i.am;britney spears
miley cyrus;britney spears
charli xcx;brooke candy
charli xcx;brooke candy
travie mccoy;bruno mars
snoop dogg;bruno mars
b.o.b;bruno mars
mark ronson;bruno mars
travie mccoy;bruno mars
h.e.r.;bryson tiller
playboi carti;bryson tiller
dj khaled;bryson tiller
steve aoki;bts
lauv;bts
macklemore & ryan lewis;buffalo madonna
dave;burna boy
jorja smith;burna boy
stormzy;burna boy
rihanna;calvin harris
noname;cam o\'bi
kanye west;cam\'ron
bazzi;camila cabello
ed sheeran;camila cabello
mark ronson;camila cabello
joey bada$$;capital steez
bruno mars;cardi b
maroon 5;cardi b
rita ora;cardi b
offset;cardi b
dj snake;cardi b
ed sheeran;cardi b
city girls;cardi b
bruno mars;cardi b
charli xcx;carly rae jepsen
charli xcx;caroline polachek
earl sweatshirt;casey veggies
mac miller;ceelo green
avril lavigne;chad kroeger
madonna;chance the rapper
sza;chance the rapper
ybn cordae;chance the rapper
ed sheeran;chance the rapper
snakehips;chance the rapper
action bronson;chance the rapper
cardi b;chance the rapper
iggy azalea;charli xcx
rita ora;charli xcx
icona pop;charli xcx
tove lo;charli xcx
icona pop;charli xcx
100 gecs;charli xcx
david guetta;charli xcx
wiz khalifa;charlie puth
daniel caesar;charlotte day wilson
earl sweatshirt;cheryl harris
flume;chet faker
chance the rapper;chicago children\'s choir
travi$ scott;chief keef
lil uzi vert;chief keef
playboi carti;chief keef
beyoncé;chimamanda ngozi adichie
chip tha ripper;chip tha ripper
agnes monica;chris brown
lil dicky;chris brown
omarion;chris brown
nicki minaj;chris brown
jordin sparks;chris brown
kanye west;chris martin
a great big world;christina aguilera
maroon 5;christina aguilera
nujabes;cise starr
wallows;clairo
charli xcx;clairo
joji;clams casino
justin bieber;clever
martin garrix;clinton kane
jason mraz;colbie caillat
lady gaga;colby o\'donis
feint;coma
kris kross amsterdam;conor maynard
kygo;conrad sewell
kanye west;consequence
mf doom;count bass d
charli xcx;cupcakke
charli xcx;cupcakke
charli xcx;cupcakke
cheat codes;cvbz
gorillaz;d.r.a.m
trippie redd;dababy
megan thee stallion;dababy
post malone;dababy
camila cabello;dababy
luis fonsi;daddy yankee
the weeknd;daft punk
gorillaz;daley
bruno mars;damian marley
rudimental;dan caplen
yungblud;dan reynolds of imagine dragons
peeping tom;dan the automator
rejjie snow;dana williams
burak yeter;danelle sandoval
bring me the horizon;dani filth
h.e.r.;daniel caesar
vampire weekend;danielle haim
rustie;danny brown
ab-soul;danny brown
freddie gibbs;danny brown
gorillaz;danny brown
linkin park;daron malakian
snoop dogg;dat nigga daz
rihanna;david guetta
gryffin;daya
gorillaz;de la soul
clean bandit;demi lovato
jax jones;demi lovato
cheat codes;demi lovato
eminem;denaun
dj khalil;denzel curry
bts;desiigner
run the jewels;diane coffee
eminem;dido
louis tomlinson;digital farm animals
mø;diplo
sia;diplo
sia;diplo
sia;diplo
sia;diplo
khalid;disclosure
taylor swift;dixie chicks
shakira;dizzee rascal
ty dolla $ign;dj mustard
major lazer;dj snake
anitta;dj yuri martins
anderson .paak;dodgr
tove lo;doja cat
freddie gibbs;domo genesis
eminem;don toliver
jackboys;don toliver
charli xcx;dorian electra
kendrick lamar;dr. dre
beyoncé;drake
blocboy jb;drake
partynextdoor;drake
future;drake
a$ap rocky;drake
meek mill;drake
nicki minaj;drake
partynextdoor;drake
rihanna;drake
ilovemakonnen;drake
i love makonnen;drake
nicki minaj;drake
nicki minaj;drake
gucci mane;drake
bad bunny;drake
chris brown;drake
partynextdoor;drake
roy woods;drake
gorillaz;dram
brockhampton;dua lipa
young thug;duke
young thug;duke
christine and the queens;dâm-funk
ty dolla $ign;e-40
tyler, the creator;earl
freddie gibbs;earl sweatshirt
the alchemist;earl sweatshirt
dreamville;earthgang
disclosure;ed macfarlane
eminem;ed sheeran
taylor swift;ed sheeran
stormzy;ed sheeran
taylor swift;ed sheeran
rudimental;ed sheeran
eminem;ed sheeran
macklemore & ryan lewis;eighty4 fly
major lazer;el alfa
college;electric youth
disclosure;eliza doolittle
rudimental;ella eyre
clean bandit;ellie goulding
calvin harris;ellie goulding
calvin harris;ellie goulding
skrillex;ellie goulding
skrillex;ellie goulding
tinie tempah;ellie goulding
major lazer;ellie goulding
tove lo;elliphant
young thug;elton john
rudimental;emeli sandé
50 cent;eminem
logic;eminem
ed sheeran;eminem
rihanna;eminem
khalid;empress of
macklemore & ryan lewis;eric nally
macklemore & ryan lewis;eric nally
robin schulz;erika sirola
noname;eryn allen kane
shakey graves;esmé patterson
tyler, the creator;estelle
david guetta;estelle
gorillaz;fatoumata diawara
kiiara;felix snow
macklemore & ryan lewis;fences
shoreline mafia;fenix flexin
cheat codes;fetty wap
david guetta;fetty wap
david guetta;flo rida
lady gaga;flo rida
calvin harris;florence welch
bebe rexha;florida georgia line
whethan;flux pavilion
mø;foster the people
zedd;foxes
nicki minaj;foxy brown
robin schulz;francesco yates
chance the rapper;francis
tyler, the creator;frank ocean
calvin harris;frank ocean
beyoncé;frank ocean
jay-z & kanye west;frank ocean
earl sweatshirt;frank ocean
tyler, the creator;frank ocean
tyler, the creator;frank ocean
jason derülo;french montana
miley cyrus;french montana
david guetta;french montana
major lazer;fuse odg
major lazer;fuse odg
nicki minaj;future
young thug;future
ariana grande;future
lil uzi vert;future
lil uzi vert;future
travi$ scott;future
maroon 5;future
calvin harris;future
post malone;future
young thug;future
21 savage;future
taylor swift;future
chance the rapper;future
iu;g-dragon
post malone;g-eazy
britney spears;g-eazy
gorillaz;george benson
wiz khalifa;ghost loft
lily allen;giggs
kanye west;glc
denzel curry;goldlink | twelve\'len + goldl1nk
troye sivan;gordi
gorillaz;grace jones
macklemore & ryan lewis;grandmaster caz
macklemore & ryan lewis;grandmaster caz
perturbator;greta link
이달의 소녀 yyxy;grimes
janelle monáe;grimes
bring me the horizon;grimes
looπδ yyxy;grimes
selena gomez;gucci mane
migos;gucci mane
doja cat;gucci mane
lil baby;gunna
chris brown;gunna
lil uzi vert;gunna
young thug;gunna
a boogie wit da hoodie;gunna
playboi carti;gunna
young thug;gunna
young thug;gunna
metro boomin;gunna
metro boomin;gunna
roddy ricch;gunna
jhené aiko;h.e.r
daniel caesar;h.e.r
twin shadow;haim
charli xcx;haim
post malone;halsey
bts;halsey
the chainsmokers;halsey
charli xcx;hannah diamond
american football;hayley williams
b.o.b;hayley williams
zedd;hayley williams of paramore
stormzy;headie one
tyler, the creator;hodgy beats
tyler, the creator;hodgy beats
macklemore & ryan lewis;hollis
macklemore & ryan lewis;hollis
gorillaz;hypnotic brass ensemble
denzel curry;ice billion berg
tove lo;icona pop
wiley;idris elba
ariana grande;iggy azalea
robin schulz;ilsey
pendulum;in flames
zico;iu
pabllo vittar;ivete sangalo
charice;iyaz
major lazer;j balvin
dave;j hus
dj snake;j. balvin
jay rock;j. cole
dreamville;j. cole
young thug;j. cole
6lack;j. cole
anderson .paak;j. cole
joey bada$$;j. cole
earthgang;j.i.d
denzel curry;j.i.d | j.1.d
matoma;ja rule
beyoncé;jack white
young thug;jaden smith
tyler, the creator;jaden smith
beyoncé;james blake
kanye west;jamie foxx
gorillaz;jamie principle
disclosure;jamie woon
fun.;janelle monáe
fun.;janelle monáe
robin schulz;jasmine thompson
charli xcx;jay park
goldlink;jay prince
kendrick lamar;jay rock
justin timberlake;jay z
beyoncé;jay z
beyoncé;jay-z
rihanna;jay-z
kanye west;jay-z
beyoncé;jay-z
beyoncé;jay-z
kanye west;jay-z
rihanna;jeezy
odesza;jenni potts
chance the rapper;jeremih
route 94;jess glynne
clean bandit;jess glynne
rudimental;jess glynne
david guetta;jessie j
eminem;jessie reyez
disclosure;jessie ware
flume;jezzabell doran
flume;jezzabell doran
ab-soul;jhene aiko
omarion;jhene aiko
dreamville;jid
lupe fiasco;jill scott
looπδ;jinsoul
xxxtentacion;joey bada$$
mstrkrft;john legend
kanye west;john legend
fort minor;john legend
swedish house mafia;john martin
frank ocean;john mayer
calvin harris;john newman
rudimental;john newman
rudimental;john newman
run the jewels;joi
rich brian;joji
kali uchis;jorja smith
eminem;joyner lucas
big data;joywave
denzel curry;jpegmafia
young thug;juice wrld
ynw melly;juice wrld
eminem;juice wrld
lil yachty;juice wrld
ski mask the slump god;juice wrld
travi$ scott;juicy j
rae sremmurd;juicy j
katy perry;juicy j
clean bandit;julia michaels
5 seconds of summer;julia michaels
daft punk;julian casablancas
the lonely island;julian casablancas
chance the rapper;justin bieber
jack ü;justin bieber
major lazer;justin bieber
david guetta;justin bieber
travi$ scott;justin bieber
the lonely island;justin timberlake
madonna;justin timberlake
timbaland;justin timberlake
don toliver;kaash paige
travi$ scott;kacy hill
jack ü;kai
flume;kai
bridgit mendler;kaiydo
tyler, the creator;kali uchis
daniel caesar;kali uchis
gorillaz;kano
nicki minaj;kanye west
travi$ scott;kanye west
chance the rapper;kanye west
estelle;kanye west
30 seconds to mars;kanye west
katy perry;kanye west
ynw melly;kanye west
6ix9ine;kanye west
tyler, the creator;kanye west
kid cudi;kanye west
santigold;karen o
calvin harris;katy perry
3oh!3;katy perry
3oh!3;katyperry
pitbull;ke$ha
3oh!3;ke$ha
hayley kiyoko;kehlani
cardi b;kehlani
charlie puth;kehlani
kyle;kehlani
gorillaz;kelela
david guetta;kelly rowland
dayvi;kelly ruiz
beyoncé;kendrick lamar
lil\' wayne;kendrick lamar
taylor swift;kendrick lamar
sza;kendrick lamar
anderson .paak;kendrick lamar
a$ap rocky;kendrick lamar
sir;kendrick lamar
isaiah rashad;kendrick lamar
sia;kendrick lamar
rich the kid;kendrick lamar
ab-soul;kendrick lamar
jay rock;kendrick lamar
flying lotus;kendrick lamar
earl sweatshirt;keorapetse kgositsile
timbaland;keri hilson
100 gecs;kero kero bonito
macklemore;kesha
alina baraz;khalid
martin garrix;khalid
shawn mendes;khalid
lorde;khalid
alina baraz;khalid
6lack;khalid
ed sheeran;khalid
calvin harris;khalid
kanye west;kid cudi
schoolboy q;kid cudi
david guetta;kid cudi
kanye west;kid cudi
selena gomez;kid cudi
fifth harmony;kid ink
denzel curry;kiddo marv
jack ü;kiesza
linkin park;kiiara
dimitri vegas & like mike;kiiara
j. cole;kill edward
korn;kill the noise
freddie gibbs;killer mike
chet faker;kilo kish
charli xcx;kim petras
charli xcx;kim petras
the pogues;kirsty maccoll
chance the rapper;knox fortune
metro boomin;kodak black
a boogie wit da hoodie;kodak black
macklemore & ryan lewis;kool moe dee
macklemore & ryan lewis;kool moe dee
drake;kyla
tinie tempah;labrinth
sia;labrinth
sia;labrinth
sia;labrinth
the weeknd;lana del rey
lil skies;landon cube
lil skies;landon cube
thefatrat;laura brehm
mystery jets;laura marling
bts;lauv
bts;lauv
bts;lauv
azealia banks;lazy jay
cobra starship;leighton meester
dababy;lil baby
post malone;lil baby
young thug;lil baby
gunna;lil baby
lil uzi vert;lil durk
usher;lil jon
smokepurpp;lil pump
the kid laroi;lil tecca
polo g;lil tjay
migos;lil uzi vert
lil baby;lil uzi vert
travi$ scott;lil uzi vert
nav;lil uzi vert
juice wrld;lil uzi vert
a boogie wit da hoodie;lil uzi vert
playboi carti;lil uzi vert
nicki minaj;lil wayne
nicki minaj;lil wayne
eminem;lil wayne
chance the rapper;lil wayne
kodak black;lil wayne
nicki minaj;lil wayne
chris brown;lil wayne
jay sean;lil wayne
tyler, the creator;lil wayne
nicki minaj;lil wayne
dram;lil yachty
kyle;lil yachty
chance the rapper;lil yachty
charli xcx;lil yachty
jay sean;lil\' wayne
parov stelar;lilja bloom
gorillaz;little dragon
gorillaz;little dragon
sbtrkt;little dragon
charli xcx;lizzo
onerepublic;logic
panic! at the disco;lolo
panic! at the disco;lolo
disclosure;london grammar
a boogie wit da hoodie;london on da track
flo rida;lookas
flo rida;lookas
disclosure;lorde
clean bandit;louisa johnson
usher;ludacris
david guetta;ludacris
pabllo vittar;ludmilla
clean bandit;luis fonsi
clean bandit;luis fonsi
kanye west;lupe fiasco
aaron smith;luvli
mark ronson;lykke li
drake;lykke li
kleerup;lykke li
feder;lyse
madonna;m.i.a
ariana grande;mac miller
young thug;machine gun kelly
fences;macklemore
martin garrix;macklemore
rudimental;macklemore
roy woods;madeintyo
odesza;madelyn grant
m83;mai lan
grimes;majical cloudz
xxxtentacion;maluma
shakira;maluma
odesza;mansionair
avril lavigne;marilyn manson
clean bandit;marina
clean bandit;marina
massive attack;martina topley-bird
massive attack;martina topley-bird
macklemore & ryan lewis;mary lambert
whethan;mascolo
shoreline mafia;master kato
pabllo vittar;mateus carrilho
battles;matias aguayo
zedd;matthew koma
lupe fiasco;matthew santos
gorillaz;mavis staples
whethan;max
anitta;mc rebecca
tove lo;mc zaac
roddy ricch;meek mill
post malone;meek mill
nav;meek mill
charlie puth;meghan trainor
macklemore & ryan lewis;melle mel
macklemore & ryan lewis;melle mel
james blake;metro boomin
james blake;metro boomin
gary jules;michael andrews
octavian;michael phantom
placebo;michael stipe
kaytranada;mick jenkins
gorillaz;mick jones
katy perry;migos
cardi b;migos
calvin harris;migos
janelle monáe;miguel
mariah carey;miguel
j. cole;miguel
mac miller;miguel
dua lipa;miguel
meghan trainor;mike sabath
madonna;mike tyson
rihanna;mikky ekko
mark ronson;miley cyrus
lizzo;missy elliott
ariana grande;missy elliott
mark ronson & the business intl;mndr
dababy;moneybagg yo
fetty wap;monty
fetty wap;monty
flume;moon holiday
flume;moon holiday
diplo;morgan wallen
gorillaz;mos def
gorillaz;mos def
gorillaz;mos def
james blake;moses sumney
mf doom;mr. fantastik
jay-z;mr. hudson
lia clark;mulher pepita
6ix9ine;murda beatz
6ix9ine;murda beatz
roddy ricch;mustard
charli xcx;mykki blanco
major lazer;mø
charli xcx;mø
major lazer;mø
odesza;naomi wild
amy winehouse;nas
lil nas x;nas
simple plan;natasha bedingfield
p!nk;nate ruess
emeli sandé;naughty boy
mustard;nav
lil uzi vert;nav
earl sweatshirt;navy blue
david guetta;ne-yo
david guetta;ne-yo
miley cyrus;nelly
james morrison;nelly furtado
julia michaels;niall horan
madonna;nicki minaj
post malone;nicki minaj
6ix9ine;nicki minaj
rihanna;nicki minaj
ariana grande;nicki minaj
christina aguilera;nicki minaj
drake;nicki minaj
kanye west;nicki minaj
david guetta;nicki minaj
jason derülo;nicki minaj
little mix;nicki minaj
major lazer;nicki minaj
madonna;nicki minaj
6ix9ine;nicki minaj
yg;nicki minaj
ariana grande;nicki minaj
david guetta;nicki minaj
david guetta;nicki minaj
megan thee stallion;nicki minaj
jason derülo;nicki minaj
david guetta;nicki minaj
david guetta;nicki minaj
trey songz;nicki minaj
avril lavigne;nicki minaj
tyga;nicki minaj
katy perry;nicki minaj
6ix9ine;nicki minaj
young thug;nicki minaj
kanye west;nicki minaj
bebe rexha;nicki minaj
bts;nicki minaj
timbaland;nicole scherzinger
flying lotus;niki randa
daft punk;nile rodgers
daft punk;nile rodgers
perturbator;noir deco
major lazer;nyla
major lazer;nyla
dababy;offset
young thug;offset
tyga;offset
kodak black;offset
a boogie wit da hoodie;offset
don toliver;offset
madison beer;offset
gucci mane;offset
lil uzi vert;oh wonder
whethan;oh wonder
shoreline mafia;ohgeesy
you me at six;oli sykes
gnash;olivia o\'brien
timbaland;one republic
galantis;onerepublic
the throne;otis redding
jay-z & kanye west;otis redding
dj snake;ozuna
post malone;ozzy osbourne
charli xcx;pabllo vittar
major lazer;pabllo vittar
lali;pabllo vittar
charli xcx;pabllo vittar
daft punk;panda bear
anitta;papatinho
major lazer;partynextdoor
martin garrix;patrick stump of fall out boy
gorillaz;paul simonon
kanye west;paul wall
daft punk;paul williams
christina aguilera;peaches
lexa;pedro sampaio
wc no beat;pedro sampaio e fp do trem bala
gorillaz;peven everett
snoop dogg;pharrell
tyler, the creator;pharrell
robin thicke;pharrell
daft punk;pharrell williams
lil uzi vert;pharrell williams
calvin harris;pharrell williams
daft punk;pharrell williams
daft punk;pharrell williams
daft punk;pharrell williams
daft punk;pharrell williams
ariana grande;pharrell williams
noname;phoelix
playboi carti;pi\'erre bourne
playboi carti;pi\'erre bourne
john talabot;pional
jennifer lopez;pitbull
jennifer lopez;pitbull
austin mahone;pitbull
belinda;pitbull
chase & status;plan b
mustard;playboi carti
lana del rey;playboi carti
lil yachty;playboi carti
ed sheeran;pnb rock
gorillaz;popcaan
lorde;post malone
justin bieber;post malone
the knocks;powers
danny brown;purity ring
freddie gibbs;pusha t
gorillaz;pusha t
kanye west;pusha t
kanye west;pusha t
linkin park;pusha t
mark ronson & the business intl;q-tip
anderson .paak;q-tip
hiatus kaiyote;q-tip
eminem;q-tip
young thug;quavo
don toliver;quavo
justin bieber;quavo
travi$ scott;quavo
max;quinn xcii
lady gaga;r. kelly
kanye west;raekwon
freddie gibbs;raekwon
gorillaz;rag\'n\'bone man
peeping tom;rahzel
bring me the horizon;rahzel
matoma;ralph tresvant
sam feldt;rani
noname;raury
gorillaz;ray blk
macklemore & ryan lewis;ray dalton
fetty wap;remy boyz
tyler, the creator;rex orange county
tyler, the creator;rex orange county
kali uchis;reykon
lil skies;rich the kid
blueface;rich the kid
kanye west;rick ross
kanye west;rick ross
denzel curry;rick ross
doja cat;rico nasty
100 gecs;rico nasty
eminem;rihanna
kendrick lamar;rihanna
coldplay;rihanna
t.i.;rihanna
eminem;rihanna
drake;rihanna
drake;rihanna
kendrick lamar;rihanna
dj khaled;rihanna
nicki minaj;rihanna
iggy azalea;rita ora
avicii;rita ora
sofia reyes;rita ora
charli xcx;rita ora
b.o.b;rivers cuomo
honne;rm
lil nas x;rm of bts
five finger death punch;rob halford of judas priest
deadmau5;rob swire
deadmau5;rob swire
santana;rob thomas
crystal castles;robert smith
a boogie wit da hoodie;roddy ricch
jamie xx;romy
jamie xx;romy
waka flocka flame;roscoe dash
sbtrkt;roses gabor
eminem;royce da 5\'9
eminem;royce da 5\'9
eminem;royce da 5\'9
the chainsmokers;rozes
dj shadow;run the jewels
miley cyrus;rupaul
fences;ryan lewis
james blake;rza
earl sweatshirt;rza
noname;saba
chance the rapper;saba
britney spears;sabi
flo rida;sage the gemini
flo rida;sage the gemini
david guetta;sam martin
david guetta;sam martin
disclosure;sam smith
naughty boy;sam smith
tyler, the creator;samantha nelson
sbtrkt;sampha
avicii;sandro cavazza
a$ap rocky;santigold
disclosure;sasha keable
odesza;sasha sloan
janelle monáe;saul williams
tinashe;schoolboy q
macklemore & ryan lewis;schoolboy q
macklemore & ryan lewis;schoolboy q
joey bada$$;schoolboy q
lana del rey;sean ono lennon
simple plan;sean paul
beyoncé;sean paul
clean bandit;sean paul
sia;sean paul
juice wrld;seezyn
dj snake;selena gomez
charlie puth;selena gomez
little mix;sharaya j
clean bandit;sharna bass
taylor swift;shawn mendes
don toliver;sheck wes
odesza;shy girls
goldlink;shy glizzy
mike perry;shy martin
david guetta;sia
david guetta;sia
zayn;sia
sia;sia
sia;sia
sia;sia
david guetta;sia
flo rida;sia
bts;sia
isaiah rashad;sir // rosegold
skrillex;sirah
skrillex;sirah
skrillex;sirah
skrillex;sirah
skrillex;sirah
skrillex;sirah original mix
slowthai;skepta
octavian;skepta
a$ap rocky;skepta
playboi carti;skepta
korn;skrillex
korn;skrillex
korn;skrillex
charli xcx;sky ferreira
nicki minaj;skylar grey
macklemore;skylar grey
eminem;skylar grey
gorillaz;slaves
gorillaz;slowthai
noname;smino
anderson .paak;smokey robinson
lil dicky;snoop dogg
kendrick lamar;snoop dogg
katy perry;snoop dogg
jason derülo;snoop dogg
gorillaz;snoop dogg
anderson .paak;snoop dogg
katy perry;snoop dogg
apparat;soap&skin
janelle monáe;solange
from first to last;some of your favorite words
lady gaga;space cowboy
santigold;spank rock
lil\' wayne;static major
halsey;stefflon don
jax jones;stefflon don
vampire weekend;steve lacy
tyler, the creator;steve lacy
vampire weekend;steve lacy
kali uchis;steve lacy
lana del rey;stevie nicks
linkin park;stormzy
little mix;stormzy
fort minor;styles of beyond
nujabes;substantial
이소라;suga of bts
m83;susanne sundfør
ellie goulding;swae lee
metro boomin;swae lee
wiz khalifa;swae lee
post malone;swae lee
nicki minaj;swae lee
metro boomin;swae lee
xxxtentacion;swae lee
travi$ scott;swae lee
the glitch mob;swan
dj khalil;swavay
lil uzi vert;syd
isaiah rashad;sza
rihanna;sza
cardi b;sza
lorde;sza
maroon 5;sza
flo rida;t-pain
kanye west;t-pain
justin timberlake;t.i
robin thicke;t.i
flume;t.shirt
david guetta;taio cruz
major lazer;tarrus riley
no jumper;tay-k
glass animals;tei-shi
no rome;the 1975
kali uchis;the creator
goldlink;the creator
earl sweatshirt;the creator
ke$ha;the dap-kings horns
clean bandit;the diamonds
edward sharpe & the magnetic zeros;the gulu widows choir
anderson .paak;the last artful
chance the rapper;the lights
gorillaz;the national orchestra for arabic music
michael bublé;the puppini sisters
sza;the weeknd
drake;the weeknd
lil uzi vert;the weeknd
beyoncé;the weeknd
gucci mane;the weeknd
travi$ scott;the weeknd
sia;the weeknd
ty dolla $ign;the weeknd
kendrick lamar;thundercat
m.i.a.;timbaland
justin timberlake;timbaland
nelly furtado;timbaland
madonna;timbaland
zayn;timbaland
snakehips;tinashe
britney spears;tinashe
daft punk;todd edwards
linkin park;tom morello
charli xcx;tommy cash
charli xcx;tommy cash
chromeo;toro y moi
meek mill;tory lanez
6ix9ine;tory lanez
charli xcx;tove lo
flume;tove lo
coldplay;tove lo
chance the rapper;towkio
run the jewels;travis barker
jay electronica;travis scott
metro boomin;travis scott
sza;travis scott
james blake;travis scott
juicy j;travis scott
trippie redd;travis scott
metro boomin;travis scott
nav;travis scott
rae sremmurd;travis scott
young thug;travis scott
post malone;travis scott
nav;travis scott
offset;travis scott
young thug;travis scott
future;travis scott
migos;travis scott
miguel;travis scott
kodak black;travis scott
playboi carti;travis scott
don toliver;travis scott
sza;travis scott
schoolboy q;travis scott
quavo;travis scott
dj khalil;trevor rich
xxxtentacion;trippie redd
diplo;trippie redd
machine gun kelly;trippie redd
joji;trippie redd
anitta;tropkillaz
charli xcx;troye sivan
denzel curry;twelve\'len
fifth harmony;ty dolla $ign
mac miller;ty dolla $ign
bebe rexha;ty dolla $ign
kehlani;ty dolla $ign
jason derülo;ty dolla $ign
megan thee stallion;ty dolla $ign
mariah carey;ty dolla $ign
post malone;ty dolla $ign
a boogie wit da hoodie;tyga
iggy azalea;tyga
doja cat;tyga
chris brown;tyga
dj snake;tyga
earl sweatshirt;tyler
kali uchis;tyler
goldlink;tyler
kendrick lamar;u2
charli xcx;uffie
snoop dogg;uncle charlie wilson
pabllo vittar;urias
david guetta;usher
david guetta;vassy
blackmill;veela
태연;verbal jint
earl sweatshirt;vince staples
earl sweatshirt;vince staples
earl sweatshirt;vince staples
gorillaz;vince staples
placebo;vv of the kills
waka flocka flame;wale
shallou;wales
macklemore & ryan lewis;wanz
eminem;white gold
major lazer;wild belle
britney spears;will.i.am
fergie;will.i.am
usher;will.i.am
jason derülo;willy william
ty dolla $ign;wiz khalifa
maroon 5;wiz khalifa
drake;wizkid
metro boomin;wizkid
shakira;wyclef jean
odesza;wynne
kodak black;xxxtentacion
charli xcx;yaeji
dj khalil;ybn cordae
the magician;years
the magician;years
post malone;yg
kanye west;young jeezy
eminem;young m.a
purity ring;young magic
dreamville;young nudy
lil uzi vert;young nudy
young thug;young scooter
jackboys;young thug
travi$ scott;young thug
metro boomin;young thug
lil uzi vert;young thug
earthgang;young thug
chance the rapper;young thug
post malone;young thug
camila cabello;young thug
lil uzi vert;young thug
ashnikko;yung baby tate
kendrick lamar;zacari
isaiah rashad;zacari
kendrick lamar;zacari
clean bandit;zara larsson
tinie tempah;zara larsson
sabrina claudio;zayn
gorillaz;zebra katz
ariana grande;zedd
macklemore;ziggy stardust
denzel curry;zillakami | jpegmaf1a + z1llakam1
janelle monáe;zoë kravitz
odesza;zyra
odesza;zyra
55x55;александр невский
